[
  {
    "model": "Being-747",
    "origin": "America",
    "chars": {
      "type": "Passenger",
      "numberOfSeats": 200,
      "combatKit": "none",
      "hasRadar": true
    },
    "parameters": {
      "length": 1000,
      "width": 200,
      "height": 200
    },
    "price": 100000000
  },
  {
    "model": "Being-748",
    "origin": "America",
    "chars": {
      "type": "Passenger",
      "numberOfSeats": 200,
      "combatKit": "none",
      "hasRadar": true
    },
    "parameters": {
      "length": 1000,
      "width": 200,
      "height": 200
    },
    "price": 24000000
  }
]