{
  "$schema": "http://json-schema.org/draft-04/schema#",
  "type": "array",
  "items": [
    {
      "type": "object",
      "properties": {
        "model": {
          "type": "string"
        },
        "origin": {
          "type": "string"
        },
        "chars": {
          "type": "object",
          "properties": {
            "type": {
              "type": "string"
            },
            "numberOfSeats": {
              "type": "integer"
            },
            "combatKit": {
              "type": "string"
            },
            "hasRadar": {
              "type": "boolean"
            }
          },
          "required": [
            "type",
            "numberOfSeats",
            "combatKit",
            "hasRadar"
          ]
        },
        "parameters": {
          "type": "object",
          "properties": {
            "length": {
              "type": "integer"
            },
            "width": {
              "type": "integer"
            },
            "height": {
              "type": "integer"
            }
          },
          "required": [
            "length",
            "width",
            "height"
          ]
        },
        "price": {
          "type": "integer"
        }
      },
      "required": [
        "model",
        "origin",
        "chars",
        "parameters",
        "price"
      ]
    }
  ]
}